…
df

## # A tibble: 49 x 14
##    Time_s ED_x_m LV_x_m LV_length_m LV_width_m visual_angle_W visual_angle_H
##     <dbl>  <dbl>  <dbl>       <dbl>      <dbl>          <dbl>          <dbl>
##  1      1  4341.  3991.        5.39       2.29        0.00185        0.00128
##  2      2  4335.  3991.        5.39       2.29        0.00189        0.00130
##  3      3  4329.  3991.        5.39       2.29        0.00193        0.00133
##  4      4  4322.  3991.        5.39       2.29        0.00197        0.00136
##  5      5  4315.  3991.        5.39       2.29        0.00201        0.00138
##  6      6  4308.  3991.        5.39       2.29        0.00205        0.00141
##  7      7  4302.  3991.        5.39       2.29        0.00210        0.00145
##  8      8  4294.  3991.        5.39       2.29        0.00215        0.00148
##  9      9  4287.  3991.        5.39       2.29        0.00220        0.00152
## 10     10  4280.  3991.        5.39       2.29        0.00226        0.00156
## # ... with 39 more rows, and 7 more variables: tau <dbl>, ED_speed_mps <dbl>,
## #   LV_speed_mps <dbl>, LV_frspacing_m <dbl>, ED_gas_pedal_pos <dbl>,
## #   ED_brake_pedal_force_kg <dbl>, tau_inv <dbl>
…
